{"new_entries": {"has_next": false, "page": 1, "results": []}, "last_updated_data": "2025-02-19T22:41:31Z", "league": {"id": 1, "name": "Arsenal", "created": "2024-07-17T11:51:46.252125Z", "closed": false, "max_entries": null, "league_type": "s", "scoring": "c", "admin_entry": null, "start_event": 1, "code_privacy": "p", "has_cup": true, "cup_league": 2451205, "rank": null}, "standings": {"has_next": true, "page": 1, "results": [{"id": 10448235, "event_total": 98, "player_name": "Jack Brennan", "rank": 1, "last_rank": 1, "rank_sort": 1, "total": 1881, "entry": 1620838, "entry_name": "Hakuna Mateta", "has_played": true}, {"id": 1324880, "event_total": 95, "player_name": "Mal Aleissa", "rank": 2, "last_rank": 2, "rank_sort": 2, "total": 1877, "entry": 215482, "entry_name": "One More Season", "has_played": true}, {"id": 72432634, "event_total": 99, "player_name": "Alex Hirkjolen", "rank": 3, "last_rank": 3, "rank_sort": 3, "total": 1876, "entry": 8448461, "entry_name": "Blueberries", "has_played": true}, {"id": 53743081, "event_total": 100, "player_name": "Patryk Witkowski", "rank": 4, "last_rank": 5, "rank_sort": 4, "total": 1872, "entry": 6500183, "entry_name": "FC Ma\u0142peczki", "has_played": true}, {"id": 31687008, "event_total": 105, "player_name": "Jonah Spindel", "rank": 5, "last_rank": 4, "rank_sort": 5, "total": 1872, "entry": 261556, "entry_name": "Giroud Awakening", "has_played": true}, {"id": 5197515, "event_total": 99, "player_name": "Bekoshvili ..", "rank": 6, "last_rank": 7, "rank_sort": 6, "total": 1869, "entry": 823969, "entry_name": "49'ers", "has_played": true}, {"id": 1764513, "event_total": 113, "player_name": "Callum Macmillan", "rank": 7, "last_rank": 29, "rank_sort": 7, "total": 1866, "entry": 285901, "entry_name": "Willian Dollar Baby", "has_played": true}, {"id": 4217544, "event_total": 116, "player_name": "Robert Maftei", "rank": 8, "last_rank": 42, "rank_sort": 8, "total": 1864, "entry": 672270, "entry_name": "Specy UTD \ufffd", "has_played": true}, {"id": 6557474, "event_total": 112, "player_name": "Dr Mohamed Ben Farouk", "rank": 9, "last_rank": 34, "rank_sort": 9, "total": 1863, "entry": 1029078, "entry_name": "Dr Vettoo", "has_played": true}, {"id": 472983, "event_total": 91, "player_name": "Luca Tartarelli", "rank": 10, "last_rank": 6, "rank_sort": 10, "total": 1862, "entry": 79321, "entry_name": "LivinLaVidaLuca FC", "has_played": true}, {"id": 3085405, "event_total": 95, "player_name": "Mesut Iman", "rank": 11, "last_rank": 9, "rank_sort": 11, "total": 1862, "entry": 494488, "entry_name": "UKOCHA MGUMU", "has_played": true}, {"id": 1194337, "event_total": 107, "player_name": "Din Zrihan", "rank": 12, "last_rank": 28, "rank_sort": 12, "total": 1861, "entry": 195608, "entry_name": "Haifa Adoma", "has_played": true}, {"id": 688425, "event_total": 111, "player_name": "callum connor", "rank": 13, "last_rank": 26, "rank_sort": 13, "total": 1861, "entry": 114202, "entry_name": "There We Land", "has_played": true}, {"id": 1537997, "event_total": 114, "player_name": "Leonard Leong", "rank": 14, "last_rank": 50, "rank_sort": 14, "total": 1860, "entry": 249034, "entry_name": "No more Mr Rice Kai", "has_played": true}, {"id": 6254592, "event_total": 106, "player_name": "Bob Bobby", "rank": 15, "last_rank": 17, "rank_sort": 15, "total": 1860, "entry": 981307, "entry_name": "Arsenal PL Winners", "has_played": true}, {"id": 24880835, "event_total": 99, "player_name": "Ahmad Sami", "rank": 16, "last_rank": 14, "rank_sort": 16, "total": 1859, "entry": 3615737, "entry_name": "DilMan", "has_played": true}, {"id": 114764, "event_total": 108, "player_name": "Abdullah Alarfaj", "rank": 17, "last_rank": 37, "rank_sort": 17, "total": 1858, "entry": 20872, "entry_name": "alarfaj", "has_played": true}, {"id": 67724837, "event_total": 92, "player_name": "Miroslav Juric", "rank": 17, "last_rank": 11, "rank_sort": 18, "total": 1858, "entry": 7973311, "entry_name": "Ancelotti FC", "has_played": true}, {"id": 69872113, "event_total": 89, "player_name": "Omar Mo", "rank": 19, "last_rank": 8, "rank_sort": 19, "total": 1858, "entry": 8189819, "entry_name": "heisnberg", "has_played": true}, {"id": 12223914, "event_total": 100, "player_name": "Abdulrahman Bin Asaker", "rank": 20, "last_rank": 19, "rank_sort": 20, "total": 1857, "entry": 1878118, "entry_name": "Eze Come Eze Go", "has_played": true}, {"id": 744792, "event_total": 101, "player_name": "Alwyn C", "rank": 21, "last_rank": 14, "rank_sort": 21, "total": 1857, "entry": 123128, "entry_name": "Valar Morghulis", "has_played": true}, {"id": 3970315, "event_total": 99, "player_name": "Dominik Popi\u00f3\u0142", "rank": 22, "last_rank": 21, "rank_sort": 22, "total": 1856, "entry": 633034, "entry_name": "Na Surowo", "has_played": true}, {"id": 1486896, "event_total": 105, "player_name": "Bilal Attalibi", "rank": 23, "last_rank": 35, "rank_sort": 23, "total": 1856, "entry": 241288, "entry_name": "Sayf The Deen", "has_played": true}, {"id": 5218094, "event_total": 101, "player_name": "Jonnie Silavant", "rank": 24, "last_rank": 25, "rank_sort": 24, "total": 1855, "entry": 826904, "entry_name": "Argenweiner", "has_played": true}, {"id": 123785, "event_total": 99, "player_name": "sultan Osman", "rank": 25, "last_rank": 22, "rank_sort": 25, "total": 1855, "entry": 22299, "entry_name": "Don42", "has_played": true}, {"id": 69718993, "event_total": 99, "player_name": "Raczidian Xalorin", "rank": 25, "last_rank": 22, "rank_sort": 26, "total": 1855, "entry": 8174263, "entry_name": "Council of Sons", "has_played": true}, {"id": 129956, "event_total": 100, "player_name": "Ibrahim Makki", "rank": 27, "last_rank": 26, "rank_sort": 27, "total": 1854, "entry": 23290, "entry_name": "brhm", "has_played": true}, {"id": 23642106, "event_total": 101, "player_name": "Jorden Chan", "rank": 28, "last_rank": 20, "rank_sort": 28, "total": 1854, "entry": 3452867, "entry_name": "Tikka Mo Salah", "has_played": true}, {"id": 616298, "event_total": 109, "player_name": "Ashton Gibbons", "rank": 29, "last_rank": 30, "rank_sort": 29, "total": 1854, "entry": 102698, "entry_name": "Saka White Rice", "has_played": true}, {"id": 47816792, "event_total": 89, "player_name": "Ahmed Ashraf 2 \ud83c\uddea\ud83c\uddec\ud83c\uddf5\ud83c\uddf8", "rank": 30, "last_rank": 12, "rank_sort": 30, "total": 1853, "entry": 6010045, "entry_name": "FPL King", "has_played": true}, {"id": 20353402, "event_total": 90, "player_name": "viljar armann dahl", "rank": 31, "last_rank": 10, "rank_sort": 31, "total": 1853, "entry": 3015429, "entry_name": "When Bite", "has_played": true}, {"id": 5029232, "event_total": 101, "player_name": "Brendan Sylvester", "rank": 32, "last_rank": 36, "rank_sort": 32, "total": 1851, "entry": 797171, "entry_name": "Bukayo's Sadza", "has_played": true}, {"id": 20121900, "event_total": 99, "player_name": "Atiqul Haque Atique", "rank": 33, "last_rank": 31, "rank_sort": 33, "total": 1851, "entry": 2986159, "entry_name": "Time Masters", "has_played": true}, {"id": 16009650, "event_total": 98, "player_name": "Lance Minor", "rank": 34, "last_rank": 31, "rank_sort": 34, "total": 1850, "entry": 2418427, "entry_name": "Gold Coast Grifters", "has_played": true}, {"id": 28752057, "event_total": 92, "player_name": "Aaron Kwan", "rank": 35, "last_rank": 18, "rank_sort": 35, "total": 1850, "entry": 4041460, "entry_name": "Saka White Rice", "has_played": true}, {"id": 1223015, "event_total": 104, "player_name": "FIQZ FARISS", "rank": 36, "last_rank": 53, "rank_sort": 36, "total": 1849, "entry": 199937, "entry_name": "GERSIK FC", "has_played": true}, {"id": 3350188, "event_total": 87, "player_name": "ahmed alanzy", "rank": 37, "last_rank": 13, "rank_sort": 37, "total": 1848, "entry": 536852, "entry_name": "A32", "has_played": true}, {"id": 23935234, "event_total": 99, "player_name": "Nils Malmstr\u00f6m", "rank": 37, "last_rank": 39, "rank_sort": 38, "total": 1848, "entry": 3490422, "entry_name": "CarlSkyldig2Whiskey", "has_played": true}, {"id": 32618360, "event_total": 102, "player_name": "Carlo Francis", "rank": 37, "last_rank": 51, "rank_sort": 39, "total": 1848, "entry": 4536122, "entry_name": "Ol-rac-atac", "has_played": true}, {"id": 18011944, "event_total": 99, "player_name": "Jorge Paraskevopoulos", "rank": 40, "last_rank": 40, "rank_sort": 40, "total": 1848, "entry": 2699273, "entry_name": "SHAE'S 11", "has_played": true}, {"id": 4276496, "event_total": 115, "player_name": "Henry Nurse", "rank": 41, "last_rank": 79, "rank_sort": 41, "total": 1848, "entry": 680290, "entry_name": "Livin Saliba Loca", "has_played": true}, {"id": 601511, "event_total": 97, "player_name": "Mat\u011bj T\u00e1cha", "rank": 42, "last_rank": 37, "rank_sort": 42, "total": 1847, "entry": 100405, "entry_name": "The Gunners", "has_played": true}, {"id": 11903578, "event_total": 98, "player_name": "Alexander Svensson", "rank": 43, "last_rank": 41, "rank_sort": 43, "total": 1847, "entry": 1830905, "entry_name": "Gunners", "has_played": true}, {"id": 71917088, "event_total": 102, "player_name": "Andrei Tofan", "rank": 43, "last_rank": 56, "rank_sort": 44, "total": 1847, "entry": 8396061, "entry_name": "the faints", "has_played": true}, {"id": 4519179, "event_total": 102, "player_name": "Kar Yee Ang", "rank": 45, "last_rank": 58, "rank_sort": 45, "total": 1846, "entry": 719141, "entry_name": "BlizzardFl@ReZ\u2122", "has_played": true}, {"id": 10782637, "event_total": 104, "player_name": "Matthew Crocker", "rank": 46, "last_rank": 63, "rank_sort": 46, "total": 1846, "entry": 1669186, "entry_name": "free vince", "has_played": true}, {"id": 886661, "event_total": 112, "player_name": "Yogesh Jalli", "rank": 47, "last_rank": 76, "rank_sort": 47, "total": 1846, "entry": 145828, "entry_name": "Saka Potatoes", "has_played": true}, {"id": 37620, "event_total": 102, "player_name": "Ashton Tan", "rank": 48, "last_rank": 47, "rank_sort": 48, "total": 1846, "entry": 7438, "entry_name": "Martin On The Guard", "has_played": true}, {"id": 71281830, "event_total": 99, "player_name": "Omar mo", "rank": 48, "last_rank": 49, "rank_sort": 49, "total": 1846, "entry": 8331176, "entry_name": "fouad", "has_played": true}, {"id": 1089066, "event_total": 103, "player_name": "\ud83d\udc51 King Julian", "rank": 50, "last_rank": 63, "rank_sort": 50, "total": 1845, "entry": 179059, "entry_name": "Juligram", "has_played": true}]}}