{"new_entries": {"has_next": false, "page": 1, "results": []}, "last_updated_data": "2025-03-16T22:01:23Z", "league": {"id": 1, "name": "Arsenal", "created": "2024-07-17T11:51:46.252125Z", "closed": false, "max_entries": null, "league_type": "s", "scoring": "c", "admin_entry": null, "start_event": 1, "code_privacy": "p", "has_cup": true, "cup_league": 2451205, "rank": null}, "standings": {"has_next": true, "page": 1, "results": [{"id": 72710431, "event_total": 78, "player_name": "Ekrizdis Luminox", "rank": 1, "last_rank": 11, "rank_sort": 1, "total": 2144, "entry": 8477150, "entry_name": "Wc 4", "has_played": true}, {"id": 1194337, "event_total": 62, "player_name": "Din Zrihan", "rank": 2, "last_rank": 6, "rank_sort": 2, "total": 2138, "entry": 195608, "entry_name": "Haifa Adoma", "has_played": true}, {"id": 53743081, "event_total": 64, "player_name": "Patryk Witkowski", "rank": 3, "last_rank": 12, "rank_sort": 3, "total": 2133, "entry": 6500183, "entry_name": "FC Ma\u0142peczki", "has_played": true}, {"id": 16892303, "event_total": 74, "player_name": "Mustafa Salama  96218", "rank": 4, "last_rank": 30, "rank_sort": 4, "total": 2132, "entry": 2543445, "entry_name": "Anoon El 3aw", "has_played": true}, {"id": 10448235, "event_total": 45, "player_name": "Jack Brennan", "rank": 5, "last_rank": 1, "rank_sort": 5, "total": 2132, "entry": 1620838, "entry_name": "Hakuna Mateta", "has_played": true}, {"id": 69718993, "event_total": 72, "player_name": "Raczidian Xalorin", "rank": 6, "last_rank": 27, "rank_sort": 6, "total": 2127, "entry": 8174263, "entry_name": "Council of Sons", "has_played": true}, {"id": 6254592, "event_total": 58, "player_name": "Bob Bobby", "rank": 7, "last_rank": 14, "rank_sort": 7, "total": 2126, "entry": 981307, "entry_name": "Arsenal PL Winners", "has_played": true}, {"id": 72432634, "event_total": 48, "player_name": "Alex Hirkjolen", "rank": 8, "last_rank": 2, "rank_sort": 8, "total": 2125, "entry": 8448461, "entry_name": "Blueberries", "has_played": true}, {"id": 114764, "event_total": 59, "player_name": "Abdullah Alarfaj", "rank": 9, "last_rank": 19, "rank_sort": 9, "total": 2123, "entry": 20872, "entry_name": "alarfaj", "has_played": true}, {"id": 1324880, "event_total": 50, "player_name": "Mal Aleissa", "rank": 10, "last_rank": 4, "rank_sort": 10, "total": 2123, "entry": 215482, "entry_name": "One More Season", "has_played": true}, {"id": 20121900, "event_total": 72, "player_name": "Atiqul Haque Atique", "rank": 10, "last_rank": 34, "rank_sort": 11, "total": 2123, "entry": 2986159, "entry_name": "Time Masters", "has_played": true}, {"id": 67724837, "event_total": 58, "player_name": "Miroslav Juric", "rank": 12, "last_rank": 20, "rank_sort": 12, "total": 2122, "entry": 7973311, "entry_name": "Ancelotti FC", "has_played": true}, {"id": 14042763, "event_total": 71, "player_name": "Yasser Saad", "rank": 13, "last_rank": 42, "rank_sort": 13, "total": 2122, "entry": 2140722, "entry_name": "M. D.", "has_played": true}, {"id": 3085405, "event_total": 47, "player_name": "Mesut Iman", "rank": 14, "last_rank": 7, "rank_sort": 14, "total": 2121, "entry": 494488, "entry_name": "UKOCHA MGUMU", "has_played": true}, {"id": 1375051, "event_total": 69, "player_name": "Inst @obbh_", "rank": 15, "last_rank": 40, "rank_sort": 15, "total": 2121, "entry": 223541, "entry_name": "Luffy Team", "has_played": true}, {"id": 4112349, "event_total": 78, "player_name": "Bradai Houari", "rank": 16, "last_rank": 65, "rank_sort": 16, "total": 2118, "entry": 656001, "entry_name": "PALESTINE", "has_played": true}, {"id": 481332, "event_total": 64, "player_name": "James Thatcher", "rank": 17, "last_rank": 29, "rank_sort": 17, "total": 2118, "entry": 80737, "entry_name": "FC Thatchelona", "has_played": true}, {"id": 3354904, "event_total": 70, "player_name": "Kersen Stephens", "rank": 17, "last_rank": 48, "rank_sort": 18, "total": 2118, "entry": 537568, "entry_name": "Real Enigma", "has_played": true}, {"id": 5320917, "event_total": 42, "player_name": "Josh Curtis", "rank": 19, "last_rank": 3, "rank_sort": 19, "total": 2118, "entry": 842600, "entry_name": "Rice Rice Baby", "has_played": true}, {"id": 1486896, "event_total": 48, "player_name": "Bilal Attalibi", "rank": 20, "last_rank": 8, "rank_sort": 20, "total": 2118, "entry": 241288, "entry_name": "Sayf The Deen", "has_played": true}, {"id": 56704443, "event_total": 62, "player_name": "Rashad Saunders", "rank": 21, "last_rank": 33, "rank_sort": 21, "total": 2117, "entry": 6815734, "entry_name": "IZZDATU", "has_played": true}, {"id": 112588, "event_total": 53, "player_name": "Ben Blackmore", "rank": 22, "last_rank": 23, "rank_sort": 22, "total": 2116, "entry": 20536, "entry_name": "yoro Wissa Harry", "has_played": true}, {"id": 4519179, "event_total": 52, "player_name": "Kar Yee Ang", "rank": 23, "last_rank": 21, "rank_sort": 23, "total": 2115, "entry": 719141, "entry_name": "BlizzardFl@ReZ\u2122", "has_played": true}, {"id": 14197713, "event_total": 77, "player_name": "saleh alshamri", "rank": 24, "last_rank": 73, "rank_sort": 24, "total": 2115, "entry": 2163259, "entry_name": "Saleh alshamri", "has_played": true}, {"id": 1499020, "event_total": 68, "player_name": "Max Leslie", "rank": 25, "last_rank": 63, "rank_sort": 25, "total": 2113, "entry": 243102, "entry_name": "Crouchy", "has_played": true}, {"id": 4891389, "event_total": 78, "player_name": "Edwin F", "rank": 26, "last_rank": 108, "rank_sort": 26, "total": 2112, "entry": 776570, "entry_name": "Kai Again", "has_played": true}, {"id": 3970315, "event_total": 38, "player_name": "Dominik Popi\u00f3\u0142", "rank": 27, "last_rank": 5, "rank_sort": 27, "total": 2111, "entry": 633034, "entry_name": "Na Surowo", "has_played": true}, {"id": 5197515, "event_total": 38, "player_name": "Bekoshvili ..", "rank": 28, "last_rank": 9, "rank_sort": 28, "total": 2111, "entry": 823969, "entry_name": "49'ers", "has_played": true}, {"id": 37274227, "event_total": 63, "player_name": "sallam Hassan", "rank": 29, "last_rank": 51, "rank_sort": 29, "total": 2110, "entry": 5104501, "entry_name": "Divels\ufffd", "has_played": true}, {"id": 24880835, "event_total": 45, "player_name": "Ahmad Sami", "rank": 30, "last_rank": 18, "rank_sort": 30, "total": 2110, "entry": 3615737, "entry_name": "DilMan", "has_played": true}, {"id": 12682277, "event_total": 59, "player_name": "markabdelmessih .", "rank": 31, "last_rank": 28, "rank_sort": 31, "total": 2110, "entry": 1945069, "entry_name": "\u0627\u0648\u0639\u064a \u0627\u0644\u0627\u0647\u0644\u064a \u064a\u0639\u0645 \u0627\u0644\u062d\u062c", "has_played": true}, {"id": 45676329, "event_total": 65, "player_name": "Mothana Al-Trawaneh", "rank": 32, "last_rank": 49, "rank_sort": 32, "total": 2109, "entry": 5869335, "entry_name": "mothana\u269c\ufe0f", "has_played": true}, {"id": 1066096, "event_total": 53, "player_name": "Antto Myllym\u00e4ki", "rank": 33, "last_rank": 32, "rank_sort": 33, "total": 2109, "entry": 175338, "entry_name": "Beeno", "has_played": true}, {"id": 3583515, "event_total": 63, "player_name": "Scott C", "rank": 34, "last_rank": 58, "rank_sort": 34, "total": 2109, "entry": 572413, "entry_name": "Eze Peasy", "has_played": true}, {"id": 37124670, "event_total": 84, "player_name": "Mohamad Darwish", "rank": 34, "last_rank": 191, "rank_sort": 35, "total": 2109, "entry": 5085529, "entry_name": "Fr3wN", "has_played": true}, {"id": 16882895, "event_total": 74, "player_name": "Ahmed makramani", "rank": 36, "last_rank": 110, "rank_sort": 36, "total": 2108, "entry": 2542111, "entry_name": "Hala Madrid", "has_played": true}, {"id": 31687008, "event_total": 42, "player_name": "Jonah Spindel", "rank": 37, "last_rank": 10, "rank_sort": 37, "total": 2108, "entry": 261556, "entry_name": "Giroud Awakening", "has_played": true}, {"id": 2072154, "event_total": 61, "player_name": "Nigel Van Der Veen", "rank": 37, "last_rank": 54, "rank_sort": 38, "total": 2108, "entry": 334802, "entry_name": "Hellebonkie", "has_played": true}, {"id": 433802, "event_total": 44, "player_name": "Benjamin Kendi\u0107", "rank": 39, "last_rank": 22, "rank_sort": 39, "total": 2107, "entry": 72708, "entry_name": "Net Six and Chill", "has_played": true}, {"id": 4668706, "event_total": 76, "player_name": "Nabil Osama", "rank": 40, "last_rank": 141, "rank_sort": 40, "total": 2107, "entry": 742884, "entry_name": "NABIL CR7", "has_played": true}, {"id": 28752057, "event_total": 40, "player_name": "Aaron Kwan", "rank": 41, "last_rank": 15, "rank_sort": 41, "total": 2106, "entry": 4041460, "entry_name": "Saka White Rice", "has_played": true}, {"id": 104000, "event_total": 85, "player_name": "Hossam Alafandy", "rank": 42, "last_rank": 189, "rank_sort": 42, "total": 2106, "entry": 19202, "entry_name": "Terminator 2", "has_played": true}, {"id": 18384434, "event_total": 69, "player_name": "Michael Boyle", "rank": 43, "last_rank": 93, "rank_sort": 43, "total": 2105, "entry": 2750490, "entry_name": "BaldFraudonomicsFC", "has_played": true}, {"id": 341132, "event_total": 49, "player_name": "Mir Alyan Ansari", "rank": 44, "last_rank": 25, "rank_sort": 44, "total": 2105, "entry": 57160, "entry_name": "FBL REDS", "has_played": true}, {"id": 15758703, "event_total": 57, "player_name": "Jakob achb", "rank": 45, "last_rank": 55, "rank_sort": 45, "total": 2103, "entry": 2383454, "entry_name": "Jakob", "has_played": true}, {"id": 129956, "event_total": 50, "player_name": "Ibrahim Makki", "rank": 46, "last_rank": 38, "rank_sort": 46, "total": 2103, "entry": 23290, "entry_name": "brhm", "has_played": true}, {"id": 13881149, "event_total": 63, "player_name": "anes .d99", "rank": 47, "last_rank": 78, "rank_sort": 47, "total": 2103, "entry": 2117310, "entry_name": "Insta: anes.d99", "has_played": true}, {"id": 32618360, "event_total": 60, "player_name": "Carlo Francis", "rank": 47, "last_rank": 68, "rank_sort": 48, "total": 2103, "entry": 4536122, "entry_name": "Ol-rac-atac", "has_played": true}, {"id": 19824560, "event_total": 68, "player_name": "Anders Asheim", "rank": 49, "last_rank": 110, "rank_sort": 49, "total": 2102, "entry": 2947414, "entry_name": "Gabi Gabi Gabi", "has_played": true}, {"id": 52289894, "event_total": 76, "player_name": "Nati Kiros", "rank": 50, "last_rank": 177, "rank_sort": 50, "total": 2102, "entry": 6351892, "entry_name": "win\ufffdwin", "has_played": true}]}}