{"new_entries": {"has_next": false, "page": 1, "results": []}, "last_updated_data": "2025-02-23T19:39:13Z", "league": {"id": 1, "name": "Arsenal", "created": "2024-07-17T11:51:46.252125Z", "closed": false, "max_entries": null, "league_type": "s", "scoring": "c", "admin_entry": null, "start_event": 1, "code_privacy": "p", "has_cup": true, "cup_league": 2451205, "rank": null}, "standings": {"has_next": true, "page": 1, "results": [{"id": 10448235, "event_total": 93, "player_name": "Jack Brennan", "rank": 1, "last_rank": 1, "rank_sort": 1, "total": 1974, "entry": 1620838, "entry_name": "Hakuna Mateta", "has_played": true}, {"id": 72432634, "event_total": 101, "player_name": "Alex Hirkjolen", "rank": 2, "last_rank": 3, "rank_sort": 2, "total": 1973, "entry": 8448461, "entry_name": "Blueberries", "has_played": true}, {"id": 1764513, "event_total": 105, "player_name": "Callum Macmillan", "rank": 3, "last_rank": 7, "rank_sort": 3, "total": 1971, "entry": 285901, "entry_name": "Willian Dollar Baby", "has_played": true}, {"id": 472983, "event_total": 101, "player_name": "Luca Tartarelli", "rank": 4, "last_rank": 10, "rank_sort": 4, "total": 1963, "entry": 79321, "entry_name": "LivinLaVidaLuca FC", "has_played": true}, {"id": 6557474, "event_total": 97, "player_name": "Dr Mohamed Ben Farouk", "rank": 5, "last_rank": 9, "rank_sort": 5, "total": 1960, "entry": 1029078, "entry_name": "Dr Vettoo", "has_played": true}, {"id": 1486896, "event_total": 104, "player_name": "Bilal Attalibi", "rank": 6, "last_rank": 23, "rank_sort": 6, "total": 1960, "entry": 241288, "entry_name": "Sayf The Deen", "has_played": true}, {"id": 12223914, "event_total": 102, "player_name": "Abdulrahman Bin Asaker", "rank": 7, "last_rank": 20, "rank_sort": 7, "total": 1959, "entry": 1878118, "entry_name": "Eze Come Eze Go", "has_played": true}, {"id": 20353402, "event_total": 105, "player_name": "viljar armann dahl", "rank": 8, "last_rank": 31, "rank_sort": 8, "total": 1958, "entry": 3015429, "entry_name": "When Bite", "has_played": true}, {"id": 72710431, "event_total": 114, "player_name": "Ekrizdis Luminox", "rank": 9, "last_rank": 57, "rank_sort": 9, "total": 1956, "entry": 8477150, "entry_name": "Wc 4", "has_played": true}, {"id": 1194337, "event_total": 94, "player_name": "Din Zrihan", "rank": 10, "last_rank": 12, "rank_sort": 10, "total": 1955, "entry": 195608, "entry_name": "Haifa Adoma", "has_played": true}, {"id": 24880835, "event_total": 95, "player_name": "Ahmad Sami", "rank": 11, "last_rank": 16, "rank_sort": 11, "total": 1954, "entry": 3615737, "entry_name": "DilMan", "has_played": true}, {"id": 3085405, "event_total": 91, "player_name": "Mesut Iman", "rank": 12, "last_rank": 11, "rank_sort": 12, "total": 1953, "entry": 494488, "entry_name": "UKOCHA MGUMU", "has_played": true}, {"id": 5197515, "event_total": 84, "player_name": "Bekoshvili ..", "rank": 13, "last_rank": 6, "rank_sort": 13, "total": 1953, "entry": 823969, "entry_name": "49'ers", "has_played": true}, {"id": 3970315, "event_total": 96, "player_name": "Dominik Popi\u00f3\u0142", "rank": 14, "last_rank": 22, "rank_sort": 14, "total": 1952, "entry": 633034, "entry_name": "Na Surowo", "has_played": true}, {"id": 1324880, "event_total": 72, "player_name": "Mal Aleissa", "rank": 15, "last_rank": 2, "rank_sort": 15, "total": 1949, "entry": 215482, "entry_name": "One More Season", "has_played": true}, {"id": 114764, "event_total": 90, "player_name": "Abdullah Alarfaj", "rank": 16, "last_rank": 17, "rank_sort": 16, "total": 1948, "entry": 20872, "entry_name": "alarfaj", "has_played": true}, {"id": 6254592, "event_total": 87, "player_name": "Bob Bobby", "rank": 17, "last_rank": 15, "rank_sort": 17, "total": 1947, "entry": 981307, "entry_name": "Arsenal PL Winners", "has_played": true}, {"id": 53743081, "event_total": 75, "player_name": "Patryk Witkowski", "rank": 17, "last_rank": 4, "rank_sort": 18, "total": 1947, "entry": 6500183, "entry_name": "FC Ma\u0142peczki", "has_played": true}, {"id": 31687008, "event_total": 75, "player_name": "Jonah Spindel", "rank": 19, "last_rank": 5, "rank_sort": 19, "total": 1947, "entry": 261556, "entry_name": "Giroud Awakening", "has_played": true}, {"id": 433802, "event_total": 108, "player_name": "Benjamin Kendi\u0107", "rank": 20, "last_rank": 72, "rank_sort": 20, "total": 1944, "entry": 72708, "entry_name": "Net Six and Chill", "has_played": true}, {"id": 71281830, "event_total": 96, "player_name": "Omar mo", "rank": 21, "last_rank": 48, "rank_sort": 21, "total": 1942, "entry": 8331176, "entry_name": "fouad", "has_played": true}, {"id": 4519179, "event_total": 94, "player_name": "Kar Yee Ang", "rank": 22, "last_rank": 45, "rank_sort": 22, "total": 1940, "entry": 719141, "entry_name": "BlizzardFl@ReZ\u2122", "has_played": true}, {"id": 23935234, "event_total": 92, "player_name": "Nils Malmstr\u00f6m", "rank": 23, "last_rank": 37, "rank_sort": 23, "total": 1940, "entry": 3490422, "entry_name": "CarlSkyldig2Whiskey", "has_played": true}, {"id": 37620, "event_total": 98, "player_name": "Ashton Tan", "rank": 24, "last_rank": 48, "rank_sort": 24, "total": 1940, "entry": 7438, "entry_name": "Martin On The Guard", "has_played": true}, {"id": 5218094, "event_total": 84, "player_name": "Jonnie Silavant", "rank": 25, "last_rank": 24, "rank_sort": 25, "total": 1939, "entry": 826904, "entry_name": "Argenweiner", "has_played": true}, {"id": 28752057, "event_total": 89, "player_name": "Aaron Kwan", "rank": 26, "last_rank": 35, "rank_sort": 26, "total": 1939, "entry": 4041460, "entry_name": "Saka White Rice", "has_played": true}, {"id": 5320917, "event_total": 100, "player_name": "Josh Curtis", "rank": 27, "last_rank": 62, "rank_sort": 27, "total": 1939, "entry": 842600, "entry_name": "Rice Rice Baby", "has_played": true}, {"id": 3354904, "event_total": 99, "player_name": "Kersen Stephens", "rank": 28, "last_rank": 60, "rank_sort": 28, "total": 1938, "entry": 537568, "entry_name": "Real Enigma", "has_played": true}, {"id": 2072154, "event_total": 103, "player_name": "Nigel Van Der Veen", "rank": 29, "last_rank": 81, "rank_sort": 29, "total": 1938, "entry": 334802, "entry_name": "Hellebonkie", "has_played": true}, {"id": 10782637, "event_total": 91, "player_name": "Matthew Crocker", "rank": 30, "last_rank": 46, "rank_sort": 30, "total": 1937, "entry": 1669186, "entry_name": "free vince", "has_played": true}, {"id": 67724837, "event_total": 79, "player_name": "Miroslav Juric", "rank": 31, "last_rank": 17, "rank_sort": 31, "total": 1937, "entry": 7973311, "entry_name": "Ancelotti FC", "has_played": true}, {"id": 834948, "event_total": 115, "player_name": "Til Schultheiss", "rank": 32, "last_rank": 123, "rank_sort": 32, "total": 1937, "entry": 137501, "entry_name": "Alemannia Mariadorf", "has_played": true}, {"id": 1223015, "event_total": 87, "player_name": "FIQZ FARISS", "rank": 33, "last_rank": 36, "rank_sort": 33, "total": 1936, "entry": 199937, "entry_name": "GERSIK FC", "has_played": true}, {"id": 1537997, "event_total": 75, "player_name": "Leonard Leong", "rank": 34, "last_rank": 14, "rank_sort": 34, "total": 1935, "entry": 249034, "entry_name": "No more Mr Rice Kai", "has_played": true}, {"id": 341132, "event_total": 98, "player_name": "Mir Alyan Ansari", "rank": 35, "last_rank": 74, "rank_sort": 35, "total": 1934, "entry": 57160, "entry_name": "FBL REDS", "has_played": true}, {"id": 69872113, "event_total": 76, "player_name": "Omar Mo", "rank": 35, "last_rank": 19, "rank_sort": 36, "total": 1934, "entry": 8189819, "entry_name": "heisnberg", "has_played": true}, {"id": 18011944, "event_total": 86, "player_name": "Jorge Paraskevopoulos", "rank": 37, "last_rank": 40, "rank_sort": 37, "total": 1934, "entry": 2699273, "entry_name": "SHAE'S 11", "has_played": true}, {"id": 71494664, "event_total": 95, "player_name": "Zizo \u2026", "rank": 38, "last_rank": 60, "rank_sort": 38, "total": 1934, "entry": 8352862, "entry_name": "ZiZO", "has_played": true}, {"id": 69718993, "event_total": 78, "player_name": "Raczidian Xalorin", "rank": 39, "last_rank": 25, "rank_sort": 39, "total": 1933, "entry": 8174263, "entry_name": "Council of Sons", "has_played": true}, {"id": 2886439, "event_total": 101, "player_name": "Robbie G", "rank": 40, "last_rank": 97, "rank_sort": 40, "total": 1933, "entry": 462402, "entry_name": "Sky is high!", "has_played": true}, {"id": 744792, "event_total": 76, "player_name": "Alwyn C", "rank": 41, "last_rank": 21, "rank_sort": 41, "total": 1933, "entry": 123128, "entry_name": "Valar Morghulis", "has_played": true}, {"id": 73182882, "event_total": 111, "player_name": "u azerty", "rank": 42, "last_rank": 179, "rank_sort": 42, "total": 1932, "entry": 8525681, "entry_name": "Crazy boy", "has_played": true}, {"id": 20480214, "event_total": 87, "player_name": "FPL Fethi", "rank": 43, "last_rank": 53, "rank_sort": 43, "total": 1931, "entry": 3031698, "entry_name": "FPLFethi", "has_played": true}, {"id": 73416, "event_total": 109, "player_name": "Sebastian Frost", "rank": 44, "last_rank": 157, "rank_sort": 44, "total": 1931, "entry": 14096, "entry_name": "Califiori cheese", "has_played": true}, {"id": 601511, "event_total": 84, "player_name": "Mat\u011bj T\u00e1cha", "rank": 45, "last_rank": 42, "rank_sort": 45, "total": 1931, "entry": 100405, "entry_name": "The Gunners", "has_played": true}, {"id": 17002026, "event_total": 106, "player_name": "Marco de Sousa", "rank": 45, "last_rank": 130, "rank_sort": 46, "total": 1931, "entry": 2558597, "entry_name": "Old Havertz Kai Hard", "has_played": true}, {"id": 52271023, "event_total": 96, "player_name": "Ben Warren", "rank": 45, "last_rank": 79, "rank_sort": 47, "total": 1931, "entry": 6350403, "entry_name": "Wazza FC", "has_played": true}, {"id": 52769073, "event_total": 92, "player_name": "Matei Barbu", "rank": 48, "last_rank": 62, "rank_sort": 48, "total": 1931, "entry": 6399060, "entry_name": "Africa Red Legs", "has_played": true}, {"id": 7146548, "event_total": 95, "player_name": "Mohamed Ghoneim", "rank": 49, "last_rank": 77, "rank_sort": 49, "total": 1930, "entry": 1122396, "entry_name": "Ghoneim", "has_played": true}, {"id": 12682277, "event_total": 86, "player_name": "markabdelmessih .", "rank": 50, "last_rank": 54, "rank_sort": 50, "total": 1930, "entry": 1945069, "entry_name": "\u271e", "has_played": true}]}}