{"new_entries": {"has_next": false, "page": 1, "results": []}, "last_updated_data": "2025-03-10T23:05:29Z", "league": {"id": 1, "name": "Arsenal", "created": "2024-07-17T11:51:46.252125Z", "closed": false, "max_entries": null, "league_type": "s", "scoring": "c", "admin_entry": null, "start_event": 1, "code_privacy": "p", "has_cup": true, "cup_league": 2451205, "rank": null}, "standings": {"has_next": true, "page": 1, "results": [{"id": 10448235, "event_total": 53, "player_name": "Jack Brennan", "rank": 1, "last_rank": 1, "rank_sort": 1, "total": 2087, "entry": 1620838, "entry_name": "Hakuna Mateta", "has_played": true}, {"id": 72432634, "event_total": 53, "player_name": "Alex Hirkjolen", "rank": 2, "last_rank": 2, "rank_sort": 2, "total": 2081, "entry": 8448461, "entry_name": "Blueberries", "has_played": true}, {"id": 5320917, "event_total": 70, "player_name": "Josh Curtis", "rank": 3, "last_rank": 14, "rank_sort": 3, "total": 2080, "entry": 842600, "entry_name": "Rice Rice Baby", "has_played": true}, {"id": 1324880, "event_total": 65, "player_name": "Mal Aleissa", "rank": 4, "last_rank": 11, "rank_sort": 4, "total": 2077, "entry": 215482, "entry_name": "One More Season", "has_played": true}, {"id": 3970315, "event_total": 55, "player_name": "Dominik Popi\u00f3\u0142", "rank": 5, "last_rank": 3, "rank_sort": 5, "total": 2077, "entry": 633034, "entry_name": "Na Surowo", "has_played": true}, {"id": 1194337, "event_total": 58, "player_name": "Din Zrihan", "rank": 6, "last_rank": 5, "rank_sort": 6, "total": 2076, "entry": 195608, "entry_name": "Haifa Adoma", "has_played": true}, {"id": 3085405, "event_total": 69, "player_name": "Mesut Iman", "rank": 7, "last_rank": 21, "rank_sort": 7, "total": 2074, "entry": 494488, "entry_name": "UKOCHA MGUMU", "has_played": true}, {"id": 1486896, "event_total": 59, "player_name": "Bilal Attalibi", "rank": 8, "last_rank": 8, "rank_sort": 8, "total": 2074, "entry": 241288, "entry_name": "Sayf The Deen", "has_played": true}, {"id": 5197515, "event_total": 58, "player_name": "Bekoshvili ..", "rank": 9, "last_rank": 9, "rank_sort": 9, "total": 2073, "entry": 823969, "entry_name": "49'ers", "has_played": true}, {"id": 31687008, "event_total": 69, "player_name": "Jonah Spindel", "rank": 10, "last_rank": 28, "rank_sort": 10, "total": 2070, "entry": 261556, "entry_name": "Giroud Awakening", "has_played": true}, {"id": 72710431, "event_total": 54, "player_name": "Ekrizdis Luminox", "rank": 11, "last_rank": 6, "rank_sort": 11, "total": 2070, "entry": 8477150, "entry_name": "Wc 4", "has_played": true}, {"id": 23935234, "event_total": 65, "player_name": "Nils Malmstr\u00f6m", "rank": 12, "last_rank": 23, "rank_sort": 12, "total": 2069, "entry": 3490422, "entry_name": "CarlSkyldig2Whiskey", "has_played": true}, {"id": 53743081, "event_total": 55, "player_name": "Patryk Witkowski", "rank": 12, "last_rank": 10, "rank_sort": 13, "total": 2069, "entry": 6500183, "entry_name": "FC Ma\u0142peczki", "has_played": true}, {"id": 6254592, "event_total": 57, "player_name": "Bob Bobby", "rank": 14, "last_rank": 13, "rank_sort": 14, "total": 2068, "entry": 981307, "entry_name": "Arsenal PL Winners", "has_played": true}, {"id": 28752057, "event_total": 67, "player_name": "Aaron Kwan", "rank": 15, "last_rank": 31, "rank_sort": 15, "total": 2066, "entry": 4041460, "entry_name": "Saka White Rice", "has_played": true}, {"id": 472983, "event_total": 58, "player_name": "Luca Tartarelli", "rank": 16, "last_rank": 17, "rank_sort": 16, "total": 2065, "entry": 79321, "entry_name": "LivinLaVidaLuca FC", "has_played": true}, {"id": 1764513, "event_total": 45, "player_name": "Callum Macmillan", "rank": 17, "last_rank": 4, "rank_sort": 17, "total": 2065, "entry": 285901, "entry_name": "Willian Dollar Baby", "has_played": true}, {"id": 24880835, "event_total": 56, "player_name": "Ahmad Sami", "rank": 18, "last_rank": 15, "rank_sort": 18, "total": 2065, "entry": 3615737, "entry_name": "DilMan", "has_played": true}, {"id": 114764, "event_total": 53, "player_name": "Abdullah Alarfaj", "rank": 19, "last_rank": 12, "rank_sort": 19, "total": 2064, "entry": 20872, "entry_name": "alarfaj", "has_played": true}, {"id": 67724837, "event_total": 63, "player_name": "Miroslav Juric", "rank": 20, "last_rank": 27, "rank_sort": 20, "total": 2064, "entry": 7973311, "entry_name": "Ancelotti FC", "has_played": true}, {"id": 4519179, "event_total": 57, "player_name": "Kar Yee Ang", "rank": 21, "last_rank": 18, "rank_sort": 21, "total": 2063, "entry": 719141, "entry_name": "BlizzardFl@ReZ\u2122", "has_played": true}, {"id": 433802, "event_total": 58, "player_name": "Benjamin Kendi\u0107", "rank": 22, "last_rank": 19, "rank_sort": 22, "total": 2063, "entry": 72708, "entry_name": "Net Six and Chill", "has_played": true}, {"id": 112588, "event_total": 70, "player_name": "Ben Blackmore", "rank": 23, "last_rank": 37, "rank_sort": 23, "total": 2063, "entry": 20536, "entry_name": "yoro Wissa Harry", "has_played": true}, {"id": 6557474, "event_total": 47, "player_name": "Dr Mohamed Ben Farouk", "rank": 24, "last_rank": 7, "rank_sort": 24, "total": 2062, "entry": 1029078, "entry_name": "Dr Vettoo", "has_played": true}, {"id": 341132, "event_total": 60, "player_name": "Mir Alyan Ansari", "rank": 25, "last_rank": 30, "rank_sort": 25, "total": 2060, "entry": 57160, "entry_name": "FBL REDS", "has_played": true}, {"id": 12223914, "event_total": 55, "player_name": "Abdulrahman Bin Asaker", "rank": 26, "last_rank": 20, "rank_sort": 26, "total": 2060, "entry": 1878118, "entry_name": "Eze Come Eze Go", "has_played": true}, {"id": 69718993, "event_total": 57, "player_name": "Raczidian Xalorin", "rank": 27, "last_rank": 25, "rank_sort": 27, "total": 2059, "entry": 8174263, "entry_name": "Council of Sons", "has_played": true}, {"id": 12682277, "event_total": 54, "player_name": "markabdelmessih .", "rank": 28, "last_rank": 21, "rank_sort": 28, "total": 2059, "entry": 1945069, "entry_name": "\u0627\u0648\u0639\u064a \u0627\u0644\u0627\u0647\u0644\u064a \u064a\u0639\u0645 \u0627\u0644\u062d\u062c", "has_played": true}, {"id": 481332, "event_total": 58, "player_name": "James Thatcher", "rank": 29, "last_rank": 29, "rank_sort": 29, "total": 2058, "entry": 80737, "entry_name": "FC Thatchelona", "has_played": true}, {"id": 16892303, "event_total": 67, "player_name": "Mustafa Salama  96218", "rank": 30, "last_rank": 44, "rank_sort": 30, "total": 2058, "entry": 2543445, "entry_name": "Anoon El 3aw", "has_played": true}, {"id": 5218094, "event_total": 55, "player_name": "Jonnie Silavant", "rank": 31, "last_rank": 24, "rank_sort": 31, "total": 2057, "entry": 826904, "entry_name": "Argenweiner", "has_played": true}, {"id": 1066096, "event_total": 70, "player_name": "Antto Myllym\u00e4ki", "rank": 32, "last_rank": 60, "rank_sort": 32, "total": 2056, "entry": 175338, "entry_name": "Beeno", "has_played": true}, {"id": 56704443, "event_total": 71, "player_name": "Rashad Saunders", "rank": 33, "last_rank": 68, "rank_sort": 33, "total": 2055, "entry": 6815734, "entry_name": "IZZDATU", "has_played": true}, {"id": 20121900, "event_total": 57, "player_name": "Atiqul Haque Atique", "rank": 34, "last_rank": 32, "rank_sort": 34, "total": 2055, "entry": 2986159, "entry_name": "Time Masters", "has_played": true}, {"id": 1705003, "event_total": 67, "player_name": "Marwan Mohamed", "rank": 35, "last_rank": 52, "rank_sort": 35, "total": 2055, "entry": 276123, "entry_name": "Zamalek", "has_played": true}, {"id": 616298, "event_total": 65, "player_name": "Ashton Gibbons", "rank": 36, "last_rank": 51, "rank_sort": 36, "total": 2054, "entry": 102698, "entry_name": "Saka White Rice", "has_played": true}, {"id": 20353402, "event_total": 52, "player_name": "viljar armann dahl", "rank": 37, "last_rank": 26, "rank_sort": 37, "total": 2054, "entry": 3015429, "entry_name": "When Bite", "has_played": true}, {"id": 129956, "event_total": 68, "player_name": "Ibrahim Makki", "rank": 38, "last_rank": 62, "rank_sort": 38, "total": 2053, "entry": 23290, "entry_name": "brhm", "has_played": true}, {"id": 69872113, "event_total": 57, "player_name": "Omar Mo", "rank": 39, "last_rank": 33, "rank_sort": 39, "total": 2052, "entry": 8189819, "entry_name": "heisnberg", "has_played": true}, {"id": 1375051, "event_total": 60, "player_name": "Inst @obbh_", "rank": 40, "last_rank": 39, "rank_sort": 40, "total": 2052, "entry": 223541, "entry_name": "Luffy Team", "has_played": true}, {"id": 159879, "event_total": 58, "player_name": "Micky Dore", "rank": 41, "last_rank": 36, "rank_sort": 41, "total": 2051, "entry": 28307, "entry_name": "\u00d8deparfum", "has_played": true}, {"id": 14042763, "event_total": 58, "player_name": "Yasser Saad", "rank": 42, "last_rank": 38, "rank_sort": 42, "total": 2051, "entry": 2140722, "entry_name": "M. D.", "has_played": true}, {"id": 1537997, "event_total": 59, "player_name": "Leonard Leong", "rank": 43, "last_rank": 43, "rank_sort": 43, "total": 2050, "entry": 249034, "entry_name": "No more Mr Rice Kai", "has_played": true}, {"id": 2886439, "event_total": 42, "player_name": "Robbie G", "rank": 44, "last_rank": 16, "rank_sort": 44, "total": 2050, "entry": 462402, "entry_name": "Sky is high!", "has_played": true}, {"id": 71494664, "event_total": 58, "player_name": "Zizo \u2026", "rank": 44, "last_rank": 41, "rank_sort": 45, "total": 2050, "entry": 8352862, "entry_name": "ZiZO", "has_played": true}, {"id": 404235, "event_total": 57, "player_name": "Apurva Subedi", "rank": 46, "last_rank": 39, "rank_sort": 46, "total": 2049, "entry": 67821, "entry_name": "Rice Rice Baby", "has_played": true}, {"id": 8854387, "event_total": 69, "player_name": "Thomas Thorman", "rank": 47, "last_rank": 89, "rank_sort": 47, "total": 2049, "entry": 1383247, "entry_name": "Livin Saliba Loca", "has_played": true}, {"id": 3354904, "event_total": 54, "player_name": "Kersen Stephens", "rank": 48, "last_rank": 34, "rank_sort": 48, "total": 2048, "entry": 537568, "entry_name": "Real Enigma", "has_played": true}, {"id": 45676329, "event_total": 61, "player_name": "Mothana Al-Trawaneh", "rank": 49, "last_rank": 54, "rank_sort": 49, "total": 2048, "entry": 5869335, "entry_name": "mothana\u269c\ufe0f", "has_played": true}, {"id": 4954086, "event_total": 62, "player_name": "Patrick O'Loghlen", "rank": 50, "last_rank": 61, "rank_sort": 50, "total": 2047, "entry": 785876, "entry_name": "Xhakaboom", "has_played": true}]}}